{
  "configVersion": 2,
  "packages": [
    {
      "name": "archive",
      "rootUri": "file:///Users/iweenggs/Documents/flutter_sdk/flutter3.0.5/.pub-cache/hosted/pub.dartlang.org/archive-3.3.1",
      "packageUri": "lib/",
      "languageVersion": "2.12"
    },
    {
      "name": "args",
      "rootUri": "file:///Users/iweenggs/Documents/flutter_sdk/flutter3.0.5/.pub-cache/hosted/pub.dartlang.org/args-2.3.1",
      "packageUri": "lib/",
      "languageVersion": "2.12"
    },
    {
      "name": "async",
      "rootUri": "file:///Users/iweenggs/Documents/flutter_sdk/flutter3.0.5/.pub-cache/hosted/pub.dartlang.org/async-2.8.2",
      "packageUri": "lib/",
      "languageVersion": "2.12"
    },
    {
      "name": "boolean_selector",
      "rootUri": "file:///Users/iweenggs/Documents/flutter_sdk/flutter3.0.5/.pub-cache/hosted/pub.dartlang.org/boolean_selector-2.1.0",
      "packageUri": "lib/",
      "languageVersion": "2.12"
    },
    {
      "name": "characters",
      "rootUri": "file:///Users/iweenggs/Documents/flutter_sdk/flutter3.0.5/.pub-cache/hosted/pub.dartlang.org/characters-1.2.0",
      "packageUri": "lib/",
      "languageVersion": "2.12"
    },
    {
      "name": "charcode",
      "rootUri": "file:///Users/iweenggs/Documents/flutter_sdk/flutter3.0.5/.pub-cache/hosted/pub.dartlang.org/charcode-1.3.1",
      "packageUri": "lib/",
      "languageVersion": "2.12"
    },
    {
      "name": "checked_yaml",
      "rootUri": "file:///Users/iweenggs/Documents/flutter_sdk/flutter3.0.5/.pub-cache/hosted/pub.dartlang.org/checked_yaml-2.0.1",
      "packageUri": "lib/",
      "languageVersion": "2.12"
    },
    {
      "name": "clock",
      "rootUri": "file:///Users/iweenggs/Documents/flutter_sdk/flutter3.0.5/.pub-cache/hosted/pub.dartlang.org/clock-1.1.0",
      "packageUri": "lib/",
      "languageVersion": "2.12"
    },
    {
      "name": "collection",
      "rootUri": "file:///Users/iweenggs/Documents/flutter_sdk/flutter3.0.5/.pub-cache/hosted/pub.dartlang.org/collection-1.16.0",
      "packageUri": "lib/",
      "languageVersion": "2.12"
    },
    {
      "name": "connectivity_plus",
      "rootUri": "file:///Users/iweenggs/Documents/flutter_sdk/flutter3.0.5/.pub-cache/hosted/pub.dartlang.org/connectivity_plus-1.4.0",
      "packageUri": "lib/",
      "languageVersion": "2.12"
    },
    {
      "name": "connectivity_plus_linux",
      "rootUri": "file:///Users/iweenggs/Documents/flutter_sdk/flutter3.0.5/.pub-cache/hosted/pub.dartlang.org/connectivity_plus_linux-1.3.1",
      "packageUri": "lib/",
      "languageVersion": "2.12"
    },
    {
      "name": "connectivity_plus_macos",
      "rootUri": "file:///Users/iweenggs/Documents/flutter_sdk/flutter3.0.5/.pub-cache/hosted/pub.dartlang.org/connectivity_plus_macos-1.2.4",
      "packageUri": "lib/",
      "languageVersion": "2.12"
    },
    {
      "name": "connectivity_plus_platform_interface",
      "rootUri": "file:///Users/iweenggs/Documents/flutter_sdk/flutter3.0.5/.pub-cache/hosted/pub.dartlang.org/connectivity_plus_platform_interface-1.2.1",
      "packageUri": "lib/",
      "languageVersion": "2.12"
    },
    {
      "name": "connectivity_plus_web",
      "rootUri": "file:///Users/iweenggs/Documents/flutter_sdk/flutter3.0.5/.pub-cache/hosted/pub.dartlang.org/connectivity_plus_web-1.2.3",
      "packageUri": "lib/",
      "languageVersion": "2.12"
    },
    {
      "name": "connectivity_plus_windows",
      "rootUri": "file:///Users/iweenggs/Documents/flutter_sdk/flutter3.0.5/.pub-cache/hosted/pub.dartlang.org/connectivity_plus_windows-1.2.2",
      "packageUri": "lib/",
      "languageVersion": "2.12"
    },
    {
      "name": "crypto",
      "rootUri": "file:///Users/iweenggs/Documents/flutter_sdk/flutter3.0.5/.pub-cache/hosted/pub.dartlang.org/crypto-3.0.2",
      "packageUri": "lib/",
      "languageVersion": "2.14"
    },
    {
      "name": "cupertino_icons",
      "rootUri": "file:///Users/iweenggs/Documents/flutter_sdk/flutter3.0.5/.pub-cache/hosted/pub.dartlang.org/cupertino_icons-1.0.5",
      "packageUri": "lib/",
      "languageVersion": "2.12"
    },
    {
      "name": "dbus",
      "rootUri": "file:///Users/iweenggs/Documents/flutter_sdk/flutter3.0.5/.pub-cache/hosted/pub.dartlang.org/dbus-0.7.8",
      "packageUri": "lib/",
      "languageVersion": "2.15"
    },
    {
      "name": "dio",
      "rootUri": "file:///Users/iweenggs/Documents/flutter_sdk/flutter3.0.5/.pub-cache/hosted/pub.dartlang.org/dio-4.0.6",
      "packageUri": "lib/",
      "languageVersion": "2.12"
    },
    {
      "name": "fake_async",
      "rootUri": "file:///Users/iweenggs/Documents/flutter_sdk/flutter3.0.5/.pub-cache/hosted/pub.dartlang.org/fake_async-1.3.0",
      "packageUri": "lib/",
      "languageVersion": "2.12"
    },
    {
      "name": "ffi",
      "rootUri": "file:///Users/iweenggs/Documents/flutter_sdk/flutter3.0.5/.pub-cache/hosted/pub.dartlang.org/ffi-2.0.1",
      "packageUri": "lib/",
      "languageVersion": "2.17"
    },
    {
      "name": "flutter",
      "rootUri": "file:///Users/iweenggs/Documents/flutter_sdk/flutter3.0.5/packages/flutter",
      "packageUri": "lib/",
      "languageVersion": "2.12"
    },
    {
      "name": "flutter_flavorizr",
      "rootUri": "file:///Users/iweenggs/Documents/flutter_sdk/flutter3.0.5/.pub-cache/hosted/pub.dartlang.org/flutter_flavorizr-2.1.4",
      "packageUri": "lib/",
      "languageVersion": "2.17"
    },
    {
      "name": "flutter_lints",
      "rootUri": "file:///Users/iweenggs/Documents/flutter_sdk/flutter3.0.5/.pub-cache/hosted/pub.dartlang.org/flutter_lints-2.0.1",
      "packageUri": "lib/",
      "languageVersion": "2.17"
    },
    {
      "name": "flutter_spinkit",
      "rootUri": "file:///Users/iweenggs/Documents/flutter_sdk/flutter3.0.5/.pub-cache/hosted/pub.dartlang.org/flutter_spinkit-5.1.0",
      "packageUri": "lib/",
      "languageVersion": "2.12"
    },
    {
      "name": "flutter_test",
      "rootUri": "file:///Users/iweenggs/Documents/flutter_sdk/flutter3.0.5/packages/flutter_test",
      "packageUri": "lib/",
      "languageVersion": "2.17"
    },
    {
      "name": "flutter_web_plugins",
      "rootUri": "file:///Users/iweenggs/Documents/flutter_sdk/flutter3.0.5/packages/flutter_web_plugins",
      "packageUri": "lib/",
      "languageVersion": "2.17"
    },
    {
      "name": "fluttertoast",
      "rootUri": "file:///Users/iweenggs/Documents/flutter_sdk/flutter3.0.5/.pub-cache/hosted/pub.dartlang.org/fluttertoast-8.0.9",
      "packageUri": "lib/",
      "languageVersion": "2.12"
    },
    {
      "name": "get",
      "rootUri": "file:///Users/iweenggs/Documents/flutter_sdk/flutter3.0.5/.pub-cache/hosted/pub.dartlang.org/get-4.6.5",
      "packageUri": "lib/",
      "languageVersion": "2.15"
    },
    {
      "name": "http_parser",
      "rootUri": "file:///Users/iweenggs/Documents/flutter_sdk/flutter3.0.5/.pub-cache/hosted/pub.dartlang.org/http_parser-4.0.1",
      "packageUri": "lib/",
      "languageVersion": "2.12"
    },
    {
      "name": "image",
      "rootUri": "file:///Users/iweenggs/Documents/flutter_sdk/flutter3.0.5/.pub-cache/hosted/pub.dartlang.org/image-3.2.0",
      "packageUri": "lib/",
      "languageVersion": "2.15"
    },
    {
      "name": "io",
      "rootUri": "file:///Users/iweenggs/Documents/flutter_sdk/flutter3.0.5/.pub-cache/hosted/pub.dartlang.org/io-1.0.3",
      "packageUri": "lib/",
      "languageVersion": "2.12"
    },
    {
      "name": "js",
      "rootUri": "file:///Users/iweenggs/Documents/flutter_sdk/flutter3.0.5/.pub-cache/hosted/pub.dartlang.org/js-0.6.4",
      "packageUri": "lib/",
      "languageVersion": "2.16"
    },
    {
      "name": "json_annotation",
      "rootUri": "file:///Users/iweenggs/Documents/flutter_sdk/flutter3.0.5/.pub-cache/hosted/pub.dartlang.org/json_annotation-4.6.0",
      "packageUri": "lib/",
      "languageVersion": "2.14"
    },
    {
      "name": "lints",
      "rootUri": "file:///Users/iweenggs/Documents/flutter_sdk/flutter3.0.5/.pub-cache/hosted/pub.dartlang.org/lints-2.0.0",
      "packageUri": "lib/",
      "languageVersion": "2.17"
    },
    {
      "name": "matcher",
      "rootUri": "file:///Users/iweenggs/Documents/flutter_sdk/flutter3.0.5/.pub-cache/hosted/pub.dartlang.org/matcher-0.12.11",
      "packageUri": "lib/",
      "languageVersion": "2.12"
    },
    {
      "name": "material_color_utilities",
      "rootUri": "file:///Users/iweenggs/Documents/flutter_sdk/flutter3.0.5/.pub-cache/hosted/pub.dartlang.org/material_color_utilities-0.1.4",
      "packageUri": "lib/",
      "languageVersion": "2.13"
    },
    {
      "name": "meta",
      "rootUri": "file:///Users/iweenggs/Documents/flutter_sdk/flutter3.0.5/.pub-cache/hosted/pub.dartlang.org/meta-1.7.0",
      "packageUri": "lib/",
      "languageVersion": "2.12"
    },
    {
      "name": "multiscreen",
      "rootUri": "file:///Users/iweenggs/Documents/flutter_sdk/flutter3.0.5/.pub-cache/hosted/pub.dartlang.org/multiscreen-3.0.1",
      "packageUri": "lib/",
      "languageVersion": "2.12"
    },
    {
      "name": "nm",
      "rootUri": "file:///Users/iweenggs/Documents/flutter_sdk/flutter3.0.5/.pub-cache/hosted/pub.dartlang.org/nm-0.5.0",
      "packageUri": "lib/",
      "languageVersion": "2.12"
    },
    {
      "name": "path",
      "rootUri": "file:///Users/iweenggs/Documents/flutter_sdk/flutter3.0.5/.pub-cache/hosted/pub.dartlang.org/path-1.8.1",
      "packageUri": "lib/",
      "languageVersion": "2.12"
    },
    {
      "name": "petitparser",
      "rootUri": "file:///Users/iweenggs/Documents/flutter_sdk/flutter3.0.5/.pub-cache/hosted/pub.dartlang.org/petitparser-5.0.0",
      "packageUri": "lib/",
      "languageVersion": "2.16"
    },
    {
      "name": "plugin_platform_interface",
      "rootUri": "file:///Users/iweenggs/Documents/flutter_sdk/flutter3.0.5/.pub-cache/hosted/pub.dartlang.org/plugin_platform_interface-2.1.2",
      "packageUri": "lib/",
      "languageVersion": "2.12"
    },
    {
      "name": "sky_engine",
      "rootUri": "file:///Users/iweenggs/Documents/flutter_sdk/flutter3.0.5/bin/cache/pkg/sky_engine",
      "packageUri": "lib/",
      "languageVersion": "2.12"
    },
    {
      "name": "source_span",
      "rootUri": "file:///Users/iweenggs/Documents/flutter_sdk/flutter3.0.5/.pub-cache/hosted/pub.dartlang.org/source_span-1.8.2",
      "packageUri": "lib/",
      "languageVersion": "2.14"
    },
    {
      "name": "sprintf",
      "rootUri": "file:///Users/iweenggs/Documents/flutter_sdk/flutter3.0.5/.pub-cache/hosted/pub.dartlang.org/sprintf-6.0.2",
      "packageUri": "lib/",
      "languageVersion": "2.12"
    },
    {
      "name": "stack_trace",
      "rootUri": "file:///Users/iweenggs/Documents/flutter_sdk/flutter3.0.5/.pub-cache/hosted/pub.dartlang.org/stack_trace-1.10.0",
      "packageUri": "lib/",
      "languageVersion": "2.12"
    },
    {
      "name": "stream_channel",
      "rootUri": "file:///Users/iweenggs/Documents/flutter_sdk/flutter3.0.5/.pub-cache/hosted/pub.dartlang.org/stream_channel-2.1.0",
      "packageUri": "lib/",
      "languageVersion": "2.12"
    },
    {
      "name": "string_scanner",
      "rootUri": "file:///Users/iweenggs/Documents/flutter_sdk/flutter3.0.5/.pub-cache/hosted/pub.dartlang.org/string_scanner-1.1.0",
      "packageUri": "lib/",
      "languageVersion": "2.12"
    },
    {
      "name": "term_glyph",
      "rootUri": "file:///Users/iweenggs/Documents/flutter_sdk/flutter3.0.5/.pub-cache/hosted/pub.dartlang.org/term_glyph-1.2.0",
      "packageUri": "lib/",
      "languageVersion": "2.12"
    },
    {
      "name": "test_api",
      "rootUri": "file:///Users/iweenggs/Documents/flutter_sdk/flutter3.0.5/.pub-cache/hosted/pub.dartlang.org/test_api-0.4.9",
      "packageUri": "lib/",
      "languageVersion": "2.12"
    },
    {
      "name": "typed_data",
      "rootUri": "file:///Users/iweenggs/Documents/flutter_sdk/flutter3.0.5/.pub-cache/hosted/pub.dartlang.org/typed_data-1.3.1",
      "packageUri": "lib/",
      "languageVersion": "2.12"
    },
    {
      "name": "vector_math",
      "rootUri": "file:///Users/iweenggs/Documents/flutter_sdk/flutter3.0.5/.pub-cache/hosted/pub.dartlang.org/vector_math-2.1.2",
      "packageUri": "lib/",
      "languageVersion": "2.14"
    },
    {
      "name": "xml",
      "rootUri": "file:///Users/iweenggs/Documents/flutter_sdk/flutter3.0.5/.pub-cache/hosted/pub.dartlang.org/xml-6.1.0",
      "packageUri": "lib/",
      "languageVersion": "2.17"
    },
    {
      "name": "yaml",
      "rootUri": "file:///Users/iweenggs/Documents/flutter_sdk/flutter3.0.5/.pub-cache/hosted/pub.dartlang.org/yaml-3.1.1",
      "packageUri": "lib/",
      "languageVersion": "2.12"
    },
    {
      "name": "grocery_app",
      "rootUri": "../",
      "packageUri": "lib/",
      "languageVersion": "2.17"
    }
  ],
  "generated": "2022-08-23T06:37:52.870919Z",
  "generator": "pub",
  "generatorVersion": "2.17.6"
}
